{
    "KPlugin": {
        "Description": "An Assistant dialog to simplify inverting of matrices",
        "Description[ca@valencia]": "Un diàleg assistent per a simplificar la inversió de matrius",
        "Description[ca]": "Un diàleg assistent per a simplificar la inversió de matrius",
        "Description[cs]": "Pomocný dialog pro zjednodušení invertování matice",
        "Description[de]": "Ein Assistent, um das Invertieren von Matrizen zu vereinfachen",
        "Description[el]": "Βοηθητικός διάλογος για απλούστευση της αντιστροφής πινάκων",
        "Description[en_GB]": "An Assistant dialogue to simplify inverting of matrices",
        "Description[es]": "Un diálogo de asistente para simplificar la inversión de matrices",
        "Description[et]": "Maatriksite inverteerimist lihtsustav abiline",
        "Description[fi]": "Apuikkuna helpottamaan matriisien kääntämistä",
        "Description[fr]": "Une boîte de dialogue d'assistant simplifiant l'inversion de matrices",
        "Description[gl]": "Un diálogo auxiliar para simplificar a inversión de matrices",
        "Description[ia]": "Un dialogo Assistente per simplificar inverter matrices",
        "Description[it]": "Un assistente che semplifica l'inversione di matrici",
        "Description[ko]": "역행렬 계산을 간단하게 할 수 있도록 해 주는 도우미 대화 상자",
        "Description[nl]": "Een assistentdialoog voor het vereenvoudigen van het inverteren van matrices",
        "Description[nn]": "Eit hjelpevindauge for invertering av matriser",
        "Description[pl]": "Pomocnik upraszczający odwracanie macierzy",
        "Description[pt]": "Uma janela assistente para simplificar a inversão de matrizes",
        "Description[pt_BR]": "Um assistente para simplificar a inversão de matrizes",
        "Description[ru]": "Диалоговое окно, упрощающее обращение матрицы",
        "Description[sk]": "Asistenčný dialóg na uľahčenie invertovania matíc",
        "Description[sl]": "Pomočnik, ki poenostavi obračanje matrik",
        "Description[sv]": "En dialogruta med en guide för att förenkla invertering av matriser",
        "Description[tr]": "Ters matris almayı kolaylaştıran yardımcı pencere",
        "Description[uk]": "Діалогове вікно помічника обчислення оберненої матриці",
        "Description[x-test]": "xxAn Assistant dialog to simplify inverting of matricesxx",
        "Description[zh_CN]": "用于简化逆矩阵计算的助手对话框",
        "Description[zh_TW]": "簡化逆變換矩陣的小助手對話框",
        "Id": "Create Matrix",
        "License": "GPL",
        "Name": "Invert Matrix",
        "Name[ca@valencia]": "Inverteix la matriu",
        "Name[ca]": "Inverteix la matriu",
        "Name[cs]": "Invertovat matici",
        "Name[de]": "Matrix invertieren",
        "Name[el]": "Αντιστροφή πίνακα",
        "Name[en_GB]": "Invert Matrix",
        "Name[es]": "Invertir matriz",
        "Name[et]": "Pöördmaatriks",
        "Name[fi]": "Käännä matriisi",
        "Name[fr]": "Inverser la matrice",
        "Name[gl]": "Inverter matriz",
        "Name[ia]": "Inverte Matrice",
        "Name[it]": "Matrice inversa",
        "Name[ko]": "역행렬 계산",
        "Name[nl]": "Matrix inverteren",
        "Name[nn]": "Inverter matrise",
        "Name[pl]": "Odwracanie macierzy",
        "Name[pt]": "Inversão de Matriz",
        "Name[pt_BR]": "Inverter matriz",
        "Name[ru]": "Обращение матрицы",
        "Name[sk]": "Invertovať maticu",
        "Name[sl]": "Obrni matriko",
        "Name[sv]": "Invertera matris",
        "Name[tr]": "Matrisi Tersine Çevir",
        "Name[uk]": "Знайти обернену матрицю",
        "Name[x-test]": "xxInvert Matrixxx",
        "Name[zh_CN]": "逆矩阵",
        "Name[zh_TW]": "逆矩陣"
    },
    "RequiredExtensions": "LinearAlgebraExtension,HistoryExtension"
}
