{
    "KPlugin": {
        "Description": "An Assistant dialog to simplify calculation of integrals",
        "Description[ca@valencia]": "Un diàleg assistent per a simplificar els càlculs d'integrals",
        "Description[ca]": "Un diàleg assistent per a simplificar els càlculs d'integrals",
        "Description[cs]": "Pomocný dialog pro zjednodušení výpočtu integrálů",
        "Description[de]": "Ein Assistent, um die Berechnung von Integralen zu vereinfachen",
        "Description[el]": "Βοηθητικός διάλογος για απλούστευση του υπολογισμού ολοκληρωμάτων",
        "Description[en_GB]": "An Assistant dialogue to simplify calculation of integrals",
        "Description[es]": "Un diálogo de asistente para simplificar el cálculo de integrales",
        "Description[et]": "Integraalide arvutamist lihtsustav abiline",
        "Description[fi]": "Apuikkuna helpottamaan integraalien laskemista",
        "Description[fr]": "Une boîte de dialogue d'assistant simplifiant le calcul d'intégrales",
        "Description[gl]": "Un diálogo auxiliar para simplificar o cálculo de integrais",
        "Description[ia]": "Un dialogo Assistente per simplificar calcular integrales",
        "Description[it]": "Un assistente che semplifica il calcolo di integrali",
        "Description[ko]": "적분 계산을 간단하게 할 수 있도록 해 주는 도우미 대화 상자",
        "Description[nl]": "Een assistentdialoog voor het vereenvoudigen van het berekenen van integralen",
        "Description[nn]": "Eit hjelpevindauge for utrekning av integral av uttrykk",
        "Description[pl]": "Pomocnik upraszczający obliczanie całek",
        "Description[pt]": "Uma janela assistente para simplificar o cálculo de integrais",
        "Description[pt_BR]": "Um assistente para simplificar o cálculo de integrais",
        "Description[ru]": "Диалоговое окно, упрощающее вычисление интегралов",
        "Description[sk]": "Asistenčný dialóg na uľahčenie výpočtu integrálov",
        "Description[sl]": "Pomočnik, ki poenostavi izračunavanje integralov",
        "Description[sv]": "En dialogruta med en guide för att förenkla beräkning av integraler",
        "Description[tr]": "İfadelerin integrallerini hesaplamayı kolaylaştıran yardımcı pencere",
        "Description[uk]": "Діалогове вікно помічника у обчисленні інтегралів",
        "Description[x-test]": "xxAn Assistant dialog to simplify calculation of integralsxx",
        "Description[zh_CN]": "用于简化积分运算的助手对话框",
        "Description[zh_TW]": "簡化積分計算的小助手對話框",
        "Icon": "office-chart-area",
        "Id": "Integrate",
        "License": "GPL",
        "Name": "Integrate",
        "Name[ca@valencia]": "Integra",
        "Name[ca]": "Integra",
        "Name[cs]": "Integrovat",
        "Name[da]": "Intregrér",
        "Name[de]": "Integrieren",
        "Name[el]": "Ολοκλήρωση",
        "Name[en_GB]": "Integrate",
        "Name[es]": "Integrar",
        "Name[et]": "Integraalarvutus",
        "Name[fi]": "Integroi",
        "Name[fr]": "Intégrer",
        "Name[gl]": "Integrar",
        "Name[ia]": "Integrar",
        "Name[it]": "Integrazione",
        "Name[ko]": "적분",
        "Name[nl]": "Integreren",
        "Name[nn]": "Integrer",
        "Name[pl]": "Całkowanie",
        "Name[pt]": "Integração",
        "Name[pt_BR]": "Integral",
        "Name[ru]": "Интегрирование",
        "Name[sk]": "Integrovať",
        "Name[sl]": "Integriraj",
        "Name[sv]": "Integrera",
        "Name[tr]": "Bütünleştir",
        "Name[uk]": "Проінтегрувати",
        "Name[x-test]": "xxIntegratexx",
        "Name[zh_CN]": "积分",
        "Name[zh_TW]": "積分"
    },
    "RequiredExtensions": "CalculusExtension"
}
